{    
    "baseUrl": "https://barrigarest.wcaquino.me",
    
    "defaultCommandTimeout": 9000,
    "pageLoadTimeout":9000, 
    "ignoreTestFiles":[
        
        "*.md"
        
    ],
    "testFiles": "**/*.feature",
    "reporter": "mochawesome",    
    "reporterOptions": {
        "reportDir": "mochawesome-reports",
        "reportName": "Report",
        "quite": true,
        "overwrite": false,
        "html": true,
        "json": false,
        "charts": true,
        "timestamp": "dd-mm-yyyy",
        "takePassedScreenshot": false,
        "clearOldScreenshots": true,
        "shortScrFileNames": false,
        "jsonReport": false,
        "multiReport": false
        
      
    },
    "screenshotsFolder": "mochawesome-reports/screenshots",
    "projectId": "mvm9o9"
  
}

 
